module gostudies/go-restart

go 1.17

require (
	github.com/cosmtrek/air v1.29.0 // indirect
	github.com/fatih/color v1.13.0 // indirect
	github.com/fsnotify/fsnotify v1.5.1 // indirect
	github.com/imdario/mergo v0.3.12 // indirect
	github.com/mattn/go-colorable v0.1.12 // indirect
	github.com/mattn/go-isatty v0.0.14 // indirect
	github.com/pelletier/go-toml v1.9.4 // indirect
	github.com/pkg/errors v0.9.1 // indirect
	golang.org/x/sys v0.0.0-20220319134239-a9b59b0215f8 // indirect
)
